src/memory_interface_tb/sim/memory_interface.vcd
$date
	Tue Nov 29 16:36:25 2011
$end
$version
	Icarus Verilog
$end
$timescale
	1s
$end
$scope module tb4 $end
$var wire 1 ! done_lpf $end
$var wire 1 " done_ntsc $end
$var wire 1 # done_pt $end
$var wire 1 $ done_vga $end
$var wire 36 % lpf_pixel_read [35:0] $end
$var wire 19 & mem0_addr [18:0] $end
$var wire 36 ' mem0_read [35:0] $end
$var wire 1 ( mem0_wr $end
$var wire 36 ) mem0_write [35:0] $end
$var wire 19 * mem1_addr [18:0] $end
$var wire 36 + mem1_read [35:0] $end
$var wire 1 , mem1_wr $end
$var wire 36 - mem1_write [35:0] $end
$var wire 1 . ntsc_flag $end
$var wire 36 / ntsc_pixel [35:0] $end
$var wire 1 0 pt_flag $end
$var wire 18 1 pt_pixel_write [17:0] $end
$var wire 10 2 pt_x [9:0] $end
$var wire 9 3 pt_y [8:0] $end
$var wire 1 4 vga_flag $end
$var wire 36 5 vga_pixel [35:0] $end
$var reg 1 6 clock $end
$var reg 1 7 frame_flag $end
$var reg 1 8 lpf_flag $end
$var reg 36 9 lpf_pixel_write [35:0] $end
$var reg 1 : lpf_wr $end
$var reg 10 ; lpf_x [9:0] $end
$var reg 9 < lpf_y [8:0] $end
$var reg 1 = pt_wr $end
$var reg 1 > reset $end
$var reg 1 ? start $end
$var reg 1 @ vclock $end
$scope module mem_int $end
$var wire 1 A clock $end
$var wire 1 # done_pt $end
$var wire 1 B frame_flag $end
$var wire 1 C lpf_flag $end
$var wire 36 D lpf_pixel_write [35:0] $end
$var wire 1 E lpf_wr $end
$var wire 10 F lpf_x [9:0] $end
$var wire 9 G lpf_y [8:0] $end
$var wire 36 H mem0_read [35:0] $end
$var wire 36 I mem1_read [35:0] $end
$var wire 1 . ntsc_flag $end
$var wire 36 J ntsc_pixel [35:0] $end
$var wire 1 0 pt_flag $end
$var wire 18 K pt_pixel [17:0] $end
$var wire 10 L pt_x [9:0] $end
$var wire 9 M pt_y [8:0] $end
$var wire 1 N ptf_flag $end
$var wire 36 O ptf_pixel_write [35:0] $end
$var wire 1 P ptf_wr $end
$var wire 10 Q ptf_x [9:0] $end
$var wire 9 R ptf_y [8:0] $end
$var wire 1 S reset $end
$var wire 1 4 vga_flag $end
$var reg 1 T capt_mem_block $end
$var reg 2 U capt_mem_loc [1:0] $end
$var reg 1 V disp_mem_block $end
$var reg 2 W disp_mem_loc [1:0] $end
$var reg 1 X done_lpf $end
$var reg 1 Y done_ntsc $end
$var reg 1 Z done_ptf $end
$var reg 1 [ done_vga $end
$var reg 19 \ lpf_addr [18:0] $end
$var reg 36 ] lpf_pixel_read [35:0] $end
$var reg 19 ^ mem0_addr [18:0] $end
$var reg 4 _ mem0_done [3:0] $end
$var reg 4 ` mem0_next_read [3:0] $end
$var reg 8 a mem0_read_queue [7:0] $end
$var reg 1 b mem0_wr $end
$var reg 36 c mem0_write [35:0] $end
$var reg 19 d mem1_addr [18:0] $end
$var reg 4 e mem1_done [3:0] $end
$var reg 4 f mem1_next_read [3:0] $end
$var reg 8 g mem1_read_queue [7:0] $end
$var reg 1 h mem1_wr $end
$var reg 36 i mem1_write [35:0] $end
$var reg 1 j nexd_mem_block $end
$var reg 2 k nexd_mem_loc [1:0] $end
$var reg 4 l next_blocks [3:0] $end
$var reg 1 m next_capt_mem_block $end
$var reg 2 n next_capt_mem_loc [1:0] $end
$var reg 1 o next_disp_mem_block $end
$var reg 2 p next_disp_mem_loc [1:0] $end
$var reg 8 q next_locs [7:0] $end
$var reg 8 r next_mem0_read_queue [7:0] $end
$var reg 8 s next_mem1_read_queue [7:0] $end
$var reg 1 t next_nexd_mem_block $end
$var reg 2 u next_nexd_mem_loc [1:0] $end
$var reg 19 v next_ntsc_addr [18:0] $end
$var reg 1 w next_proc_mem_block $end
$var reg 2 x next_proc_mem_loc [1:0] $end
$var reg 19 y next_vga_addr [18:0] $end
$var reg 19 z ntsc_addr [18:0] $end
$var reg 36 { prev_lpf_pixel_read [35:0] $end
$var reg 36 | prev_ptf_pixel_read [35:0] $end
$var reg 36 } prev_vga_pixel [35:0] $end
$var reg 1 ~ proc_mem_block $end
$var reg 2 !" proc_mem_loc [1:0] $end
$var reg 19 "" ptf_addr [18:0] $end
$var reg 36 #" ptf_pixel_read [35:0] $end
$var reg 19 $" vga_addr [18:0] $end
$var reg 36 %" vga_pixel [35:0] $end
$upscope $end
$scope module mem0 $end
$var wire 19 &" addr [18:0] $end
$var wire 1 A clock $end
$var wire 1 S reset $end
$var wire 1 ( wr $end
$var wire 36 '" write [35:0] $end
$var reg 19 (" addr_queue [18:0] $end
$var reg 36 )" data [35:0] $end
$var integer 32 *" i [31:0] $end
$var reg 1 +" wr_queue $end
$var reg 36 ," write_queue [35:0] $end
$upscope $end
$scope module mem1 $end
$var wire 19 -" addr [18:0] $end
$var wire 1 A clock $end
$var wire 1 S reset $end
$var wire 1 , wr $end
$var wire 36 ." write [35:0] $end
$var reg 19 /" addr_queue [18:0] $end
$var reg 36 0" data [35:0] $end
$var integer 32 1" i [31:0] $end
$var reg 1 2" wr_queue $end
$var reg 36 3" write_queue [35:0] $end
$upscope $end
$scope module ntsc $end
$var wire 1 A clock $end
$var wire 1 " done $end
$var wire 1 S reset $end
$var wire 1 4" start $end
$var reg 32 5" count [31:0] $end
$var reg 1 6" flag $end
$var reg 36 7" pixel [35:0] $end
$var reg 32 8" rep_count [31:0] $end
$var reg 3 9" state [2:0] $end
$var reg 10 :" x [9:0] $end
$var reg 9 ;" y [8:0] $end
$upscope $end
$scope module vga $end
$var wire 1 <" blank $end
$var wire 10 =" chcount [9:0] $end
$var wire 1 A clock $end
$var wire 10 >" cvcount [9:0] $end
$var wire 1 $ done_vga $end
$var wire 1 B frame_flag $end
$var wire 10 ?" hcount [9:0] $end
$var wire 1 @" hsync $end
$var wire 8 A" iblanks [7:0] $end
$var wire 80 B" ihcounts [79:0] $end
$var wire 8 C" ihsyncs [7:0] $end
$var wire 144 D" ipixels [143:0] $end
$var wire 80 E" ivcounts [79:0] $end
$var wire 8 F" ivsyncs [7:0] $end
$var wire 18 G" pixel_out [17:0] $end
$var wire 36 H" pixel_tuple [35:0] $end
$var wire 1 S reset $end
$var wire 2 I" trunc_cindex [1:0] $end
$var wire 2 J" trunc_vindex [1:0] $end
$var wire 1 K" vclock $end
$var wire 10 L" vcount [9:0] $end
$var wire 8 M" vga_out_blue [7:0] $end
$var wire 8 N" vga_out_green [7:0] $end
$var wire 8 O" vga_out_red [7:0] $end
$var wire 36 P" vga_pixel [35:0] $end
$var wire 1 Q" vsync $end
$var reg 8 R" blanks [7:0] $end
$var reg 3 S" cindex [2:0] $end
$var reg 80 T" hcounts [79:0] $end
$var reg 8 U" hsyncs [7:0] $end
$var reg 36 V" next_pixel [35:0] $end
$var reg 1 W" out_of_bounds $end
$var reg 144 X" pixels [143:0] $end
$var reg 2 Y" state [1:0] $end
$var reg 80 Z" vcounts [79:0] $end
$var reg 1 [" vga_flag $end
$var reg 1 \" vga_out_blank_b $end
$var reg 1 ]" vga_out_hsync $end
$var reg 1 ^" vga_out_pixel_clock $end
$var reg 1 _" vga_out_sync_b $end
$var reg 1 `" vga_out_vsync $end
$var reg 3 a" vindex [2:0] $end
$var reg 1 b" vstate $end
$var reg 8 c" vsyncs [7:0] $end
$scope module xvga1 $end
$var wire 1 d" frame_flag $end
$var wire 1 e" hblankon $end
$var wire 1 f" hreset $end
$var wire 1 g" hsyncoff $end
$var wire 1 h" hsyncon $end
$var wire 1 i" next_hblank $end
$var wire 1 j" next_vblank $end
$var wire 1 S reset $end
$var wire 1 k" vblankon $end
$var wire 1 K" vclock $end
$var wire 1 l" vreset $end
$var wire 1 m" vsyncoff $end
$var wire 1 n" vsyncon $end
$var reg 1 o" blank $end
$var reg 1 p" hblank $end
$var reg 10 q" hcount [9:0] $end
$var reg 1 r" hsync $end
$var reg 1 s" vblank $end
$var reg 10 t" vcount [9:0] $end
$var reg 1 u" vsync $end
$upscope $end
$scope module insert_hsyncs $end
$var wire 1 @" e $end
$var wire 3 v" i [2:0] $end
$var wire 8 w" x [7:0] $end
$var reg 8 x" y [7:0] $end
$upscope $end
$scope module insert_vsyncs $end
$var wire 1 Q" e $end
$var wire 3 y" i [2:0] $end
$var wire 8 z" x [7:0] $end
$var reg 8 {" y [7:0] $end
$upscope $end
$scope module insert_blanks $end
$var wire 1 <" e $end
$var wire 3 |" i [2:0] $end
$var wire 8 }" x [7:0] $end
$var reg 8 ~" y [7:0] $end
$upscope $end
$scope module insert_hcounts $end
$var wire 10 !# e [9:0] $end
$var wire 3 "# i [2:0] $end
$var wire 80 ## x [79:0] $end
$var reg 80 $# y [79:0] $end
$upscope $end
$scope module insert_vcounts $end
$var wire 10 %# e [9:0] $end
$var wire 3 &# i [2:0] $end
$var wire 80 '# x [79:0] $end
$var reg 80 (# y [79:0] $end
$upscope $end
$scope module insert_pixels $end
$var wire 36 )# e [35:0] $end
$var wire 2 *# i [1:0] $end
$var wire 144 +# x [143:0] $end
$var reg 144 ,# y [143:0] $end
$upscope $end
$scope module exth $end
$var wire 3 -# i [2:0] $end
$var wire 80 .# x [79:0] $end
$var reg 10 /# y [9:0] $end
$upscope $end
$scope module extv $end
$var wire 3 0# i [2:0] $end
$var wire 80 1# x [79:0] $end
$var reg 10 2# y [9:0] $end
$upscope $end
$scope module tuple $end
$var wire 2 3# i [1:0] $end
$var wire 144 4# x [143:0] $end
$var reg 36 5# y [35:0] $end
$upscope $end
$upscope $end
$upscope $end
$enddefinitions $end
#0
$dumpvars
bx 5#
bx 4#
bx 3#
bx 2#
bx 1#
bx 0#
bx /#
bx .#
bx -#
bx ,#
bx +#
bx *#
bx )#
bx (#
bx '#
bx &#
bx %#
bx $#
bx ##
bx "#
bx !#
bx ~"
bx }"
bx |"
bx {"
bx z"
bx y"
bx x"
bx w"
bx v"
xu"
bx t"
xs"
xr"
bx q"
xp"
xo"
xn"
xm"
xl"
xk"
xj"
xi"
xh"
xg"
xf"
xe"
zd"
bx c"
xb"
bx a"
x`"
x_"
0^"
x]"
x\"
0["
bx Z"
bx Y"
bx X"
xW"
bx V"
bx U"
bx T"
bx S"
bx R"
xQ"
bx P"
bx00 O"
bx00 N"
bx00 M"
bx L"
0K"
bx J"
bx I"
bx H"
bx G"
bx F"
bx E"
bx D"
bx C"
bx B"
bx A"
x@"
bx ?"
bx >"
bx ="
x<"
bx ;"
bx :"
bx 9"
bx 8"
bx 7"
x6"
bx 5"
x4"
bx 3"
x2"
bx 1"
bx 0"
bx /"
b0 ."
b0 -"
bx ,"
x+"
bx *"
bx )"
bx ("
b0 '"
b0 &"
bx %"
bx $"
bx #"
bx ""
bx !"
x~
bx }
bx |
bx {
bx z
b100101100000000000 y
b1 x
0w
b0 v
b0 u
1t
bx0000 s
bx0000 r
b10001 q
b1 p
1o
b0 n
0m
b11 l
bx k
xj
b0 i
0h
bx g
bx f
b0 e
b0 d
b0 c
0b
bx a
bx `
b0 _
b0 ^
bx ]
bx \
0[
0Z
0Y
0X
bx W
xV
bx U
xT
1S
bz R
bz Q
zP
bz O
zN
bz M
bz L
bz K
bx J
bx I
bx H
bx G
bx F
xE
bx D
0C
0B
0A
0@
x?
1>
1=
bx <
bx ;
x:
bx 9
08
07
06
bx 5
04
bz 3
bz 2
bz 1
z0
bx /
x.
b0 -
0,
bx +
b0 *
b0 )
0(
bx '
b0 &
bx %
0$
z#
0"
0!
$end
#5
b0xxxxxxxxxxxxxxxxxxxxxxxxxxxxxxxxxxxx ,#
b0xxxxxxxxxxxxxxxxxxxxxxxxxxxxxxxxxxxx D"
b0 s
b0 r
06"
0.
b0 I"
b0 *#
bx0000 g
bx0000 a
b100101100000000000 $"
b0 z
b0 U
b1 !"
b0 k
b1 W
0T
0~
1j
1V
b0 )"
b0 '
b0 H
0+"
b0 ,"
b0 ("
b0 0"
b0 +
b0 I
02"
b0 3"
b0 /"
b0 ;"
b0 :"
b1 7"
b1 /
b1 J
b0 8"
b0 5"
b1 9"
b0 S"
b0 -#
b0 0#
b0 X"
b0 +#
b0 4#
b0 Y"
b10000000000000000000 *"
b10000000000000000000 1"
16
1A
#10
b0 O"
b0 N"
b0 M"
b0 G"
0i"
0j"
b0 5#
b0 H"
0W"
0l"
0m"
0n"
0k"
b0 J"
b0 3#
b0 ~"
b0 A"
b1 {"
b1 F"
b1 x"
b1 C"
b0 2#
b0 >"
b0 (#
b0 E"
b0 /#
b0 ="
b0 $#
b0 B"
0o"
0<"
1u"
1Q"
0s"
b0 t"
b0 L"
b0 %#
1r"
1@"
0p"
b0 q"
0e"
0h"
0g"
0f"
b0 ?"
b0 !#
0b"
b0 a"
b0 v"
b0 y"
b0 |"
b0 "#
b0 &#
b0 R"
b0 }"
b0 c"
b0 z"
b0 U"
b0 w"
b0 Z"
b0 '#
b0 1#
b0 T"
b0 ##
b0 .#
b0 s
b0 r
1^"
06
0A
17
1B
1@
1K"
#15
b0 f
b0 `
b0 x
b1 u
1m
0o
b0 g
b0 a
b0 $"
b100101100000000000 z
b1 U
b0 W
1~
0j
b0 y
b100101100000000000 v
b0 s
b0 r
b1 n
b0 p
1w
0t
b1000100 q
b1100 l
16
1A
0>
0S
#20
b0 s
b0 r
b1 x
b0 u
0m
1o
b1010000 q
b101 l
0^"
06
0A
07
0B
0@
0K"
#25
16
1A
#30
b11 {"
b11 F"
b11 x"
b11 C"
b10000000000 $#
b10000000000 B"
b1 a"
b1 v"
b1 y"
b1 |"
b1 "#
b1 &#
b1 c"
b1 z"
b1 U"
b1 w"
b1 q"
b1 ?"
b1 !#
1^"
06
0A
1?
14"
1@
1K"
#35
b100101100000000001 v
b0 s
b0 r
1Y
1"
b1000 _
1b
1(
b1 c
b1 )
b1 '"
b100101100000000000 ^
b100101100000000000 &
b100101100000000000 &"
16"
1.
b10 9"
16
1A
#40
0^"
06
0A
0?
04"
0@
0K"
#45
b0 s
b0 r
0Y
0"
b0 _
0b
0(
b0 c
b0 )
b0 '"
b0 ^
b0 &
b0 &"
06"
0.
b100101100000000001 z
1+"
b1 ,"
b100101100000000000 ("
b1 :"
b10 7"
b10 /
b10 J
b1 8"
b1 5"
b100 9"
16
1A
#50
b1 J"
b1 3#
b111 {"
b111 F"
b111 x"
b111 C"
b1000000000010000000000 $#
b1000000000010000000000 B"
b10 q"
b10 ?"
b10 !#
b10 a"
b10 v"
b10 y"
b10 |"
b10 "#
b10 &#
b11 c"
b11 z"
b11 U"
b11 w"
b10000000000 T"
b10000000000 ##
b10000000000 .#
1^"
06
0A
1@
1K"
#55
b100101100000000010 v
1Y
1"
b1000 _
1b
1(
b10 c
b10 )
b10 '"
b100101100000000001 ^
b100101100000000001 &
b100101100000000001 &"
16"
1.
b0 s
b0 r
b0 5"
b10 9"
b1 )"
b1 '
b1 H
0+"
b0 ,"
b0 ("
16
1A
#60
0^"
06
0A
0@
0K"
#65
b0 s
b0 r
0Y
0"
b0 _
0b
0(
b0 c
b0 )
b0 '"
b0 ^
b0 &
b0 &"
06"
0.
b100101100000000010 z
b0 )"
b0 '
b0 H
1+"
b10 ,"
b100101100000000001 ("
b10 :"
b11 7"
b11 /
b11 J
b10 8"
b1 5"
b100 9"
16
1A
#70
b1111 {"
b1111 F"
b1111 x"
b1111 C"
b11000000001000000000010000000000 $#
b11000000001000000000010000000000 B"
b11 a"
b11 v"
b11 y"
b11 |"
b11 "#
b11 &#
b111 c"
b111 z"
b111 U"
b111 w"
b1000000000010000000000 T"
b1000000000010000000000 ##
b1000000000010000000000 .#
b11 q"
b11 ?"
b11 !#
1^"
06
0A
1@
1K"
#75
b100101100000000011 v
1Y
1"
b1000 _
1b
1(
b11 c
b11 )
b11 '"
b100101100000000010 ^
b100101100000000010 &
b100101100000000010 &"
16"
1.
b0 s
b0 r
b0 5"
b10 9"
b10 )"
b10 '
b10 H
0+"
b0 ,"
b0 ("
16
1A
#80
0^"
06
0A
0@
0K"
#85
b0 s
b0 r
0Y
0"
b0 _
0b
0(
b0 c
b0 )
b0 '"
b0 ^
b0 &
b0 &"
06"
0.
b100101100000000011 z
b0 )"
b0 '
b0 H
1+"
b11 ,"
b100101100000000010 ("
b11 :"
b100 7"
b100 /
b100 J
b11 8"
b1 5"
b100 9"
16
1A
#90
b1 y
b100 s
b0 r
1[
1$
b100 e
1["
14
b10 J"
b10 3#
b11111 {"
b11111 F"
b11111 x"
b11111 C"
b1000000000011000000001000000000010000000000 $#
b1000000000011000000001000000000010000000000 B"
b100 q"
b100 ?"
b100 !#
b100 a"
b100 v"
b100 y"
b100 |"
b100 "#
b100 &#
b1111 c"
b1111 z"
b1111 U"
b1111 w"
b11000000001000000000010000000000 T"
b11000000001000000000010000000000 ##
b11000000001000000000010000000000 .#
1^"
06
0A
1@
1K"
#95
b100101100000000100 v
0[
0$
1Y
1"
b0 e
b1000 _
1b
1(
b100 c
b100 )
b100 '"
b100101100000000011 ^
b100101100000000011 &
b100101100000000011 &"
0["
04
16"
1.
b1 y
b1000000 s
b0 r
b0 d
b0 *
b0 -"
b1 Y"
b0 5"
b10 9"
b11 )"
b11 '
b11 H
0+"
b0 ,"
b0 ("
b100 g
b1 $"
16
1A
#100
0^"
06
0A
0@
0K"
#105
b0 ,#
b0 D"
b0 V"
b0 )#
b0 s
b0 r
b0 %"
b0 5
b0 P"
b100 f
0Y
0"
b0 _
0b
0(
b0 c
b0 )
b0 '"
b0 ^
b0 &
b0 &"
06"
0.
b1000000 g
b100101100000000100 z
b0 )"
b0 '
b0 H
1+"
b100 ,"
b100101100000000011 ("
b100 :"
b101 7"
b101 /
b101 J
b100 8"
b1 5"
b100 9"
b10 Y"
16
1A
#110
b111111 {"
b111111 F"
b111111 x"
b111111 C"
b10100000001000000000011000000001000000000010000000000 $#
b10100000001000000000011000000001000000000010000000000 B"
b101 a"
b101 v"
b101 y"
b101 |"
b101 "#
b101 &#
b11111 c"
b11111 z"
b11111 U"
b11111 w"
b1000000000011000000001000000000010000000000 T"
b1000000000011000000001000000000010000000000 ##
b1000000000011000000001000000000010000000000 .#
b101 q"
b101 ?"
b101 !#
1^"
06
0A
1@
1K"
#115
b1 y
b100101100000000101 v
0[
0$
1Y
1"
b0 e
b0 d
b0 *
b0 -"
b1000 _
1b
1(
b101 c
b101 )
b101 '"
b100101100000000100 ^
b100101100000000100 &
b100101100000000100 &"
b1 I"
b1 *#
b10 /#
b10 ="
0["
04
16"
1.
b0 s
b0 r
b0 f
b10 S"
b10 -#
b10 0#
b0 Y"
b0 5"
b10 9"
b100 )"
b100 '
b100 H
0+"
b0 ,"
b0 ("
b0 }
b0 g
16
1A
#120
0^"
06
0A
0@
0K"
#125
b0 s
b0 r
0Y
0"
b0 _
0b
0(
b0 c
b0 )
b0 '"
b0 ^
b0 &
b0 &"
06"
0.
b100101100000000101 z
b0 )"
b0 '
b0 H
1+"
b101 ,"
b100101100000000100 ("
b101 :"
b110 7"
b110 /
b110 J
b101 8"
b1 5"
b100 9"
16
1A
#130
b10 y
b100 s
b0 r
1[
1$
b100 e
b1 d
b1 *
b1 -"
1["
14
b11 J"
b11 3#
b1111111 {"
b1111111 F"
b1111111 x"
b1111111 C"
b110000000010100000001000000000011000000001000000000010000000000 $#
b110000000010100000001000000000011000000001000000000010000000000 B"
b110 q"
b110 ?"
b110 !#
b110 a"
b110 v"
b110 y"
b110 |"
b110 "#
b110 &#
b111111 c"
b111111 z"
b111111 U"
b111111 w"
b10100000001000000000011000000001000000000010000000000 T"
b10100000001000000000011000000001000000000010000000000 ##
b10100000001000000000011000000001000000000010000000000 .#
1^"
06
0A
1@
1K"
#135
b100101100000000110 v
0[
0$
1Y
1"
b0 e
b1000 _
1b
1(
b110 c
b110 )
b110 '"
b100101100000000101 ^
b100101100000000101 &
b100101100000000101 &"
0["
04
16"
1.
b10 y
b1000000 s
b0 r
b0 d
b0 *
b0 -"
b1 Y"
b0 5"
b10 9"
b1 /"
b101 )"
b101 '
b101 H
0+"
b0 ,"
b0 ("
b100 g
b10 $"
16
1A
#140
0^"
06
0A
0@
0K"
#145
b0 s
b0 r
b100 f
0Y
0"
b0 _
0b
0(
b0 c
b0 )
b0 '"
b0 ^
b0 &
b0 &"
06"
0.
b1000000 g
b100101100000000110 z
b0 )"
b0 '
b0 H
1+"
b110 ,"
b100101100000000101 ("
b0 /"
b110 :"
b111 7"
b111 /
b111 J
b110 8"
b1 5"
b100 9"
b10 Y"
16
1A
#150
b11111111 {"
b11111111 F"
b11111111 x"
b11111111 C"
b1110000000110000000010100000001000000000011000000001000000000010000000000 $#
b1110000000110000000010100000001000000000011000000001000000000010000000000 B"
b111 a"
b111 v"
b111 y"
b111 |"
b111 "#
b111 &#
b1111111 c"
b1111111 z"
b1111111 U"
b1111111 w"
b110000000010100000001000000000011000000001000000000010000000000 T"
b110000000010100000001000000000011000000001000000000010000000000 ##
b110000000010100000001000000000011000000001000000000010000000000 .#
b111 q"
b111 ?"
b111 !#
1^"
06
0A
1@
1K"
#155
b10 y
b100101100000000111 v
0[
0$
1Y
1"
b0 e
b0 d
b0 *
b0 -"
b1000 _
1b
1(
b111 c
b111 )
b111 '"
b100101100000000110 ^
b100101100000000110 &
b100101100000000110 &"
b10 I"
b10 *#
b100 /#
b100 ="
0["
04
16"
1.
b0 s
b0 r
b0 f
b100 S"
b100 -#
b100 0#
b0 Y"
b0 5"
b10 9"
b110 )"
b110 '
b110 H
0+"
b0 ,"
b0 ("
b0 g
16
1A
#160
0^"
06
0A
0@
0K"
#165
b0 s
b0 r
0Y
0"
b0 _
0b
0(
b0 c
b0 )
b0 '"
b0 ^
b0 &
b0 &"
06"
0.
b100101100000000111 z
b0 )"
b0 '
b0 H
1+"
b111 ,"
b100101100000000110 ("
b111 :"
b1000 7"
b1000 /
b1000 J
b111 8"
b1 5"
b100 9"
16
1A
#170
b11 y
b100 s
b0 r
1[
1$
b100 e
b10 d
b10 *
b10 -"
1["
14
b0 J"
b0 3#
1`"
1]"
1\"
1_"
b1110000000110000000010100000001000000000011000000001000000000010000001000 $#
b1110000000110000000010100000001000000000011000000001000000000010000001000 B"
b1000 q"
b1000 ?"
b1000 !#
1b"
b0 a"
b0 v"
b0 y"
b0 |"
b0 "#
b0 &#
b11111111 c"
b11111111 z"
b11111111 U"
b11111111 w"
b1110000000110000000010100000001000000000011000000001000000000010000000000 T"
b1110000000110000000010100000001000000000011000000001000000000010000000000 ##
b1110000000110000000010100000001000000000011000000001000000000010000000000 .#
1^"
06
0A
1@
1K"
#175
b100101100000001000 v
0[
0$
1Y
1"
b0 e
b1000 _
1b
1(
b1000 c
b1000 )
b1000 '"
b100101100000000111 ^
b100101100000000111 &
b100101100000000111 &"
0["
04
16"
1.
b11 y
b1000000 s
b0 r
b0 d
b0 *
b0 -"
b1 Y"
b0 5"
b10 9"
b10 /"
b111 )"
b111 '
b111 H
0+"
b0 ,"
b0 ("
b100 g
b11 $"
16
1A
#180
0^"
06
0A
0@
0K"
#185
b0 s
b0 r
b100 f
0Y
0"
b0 _
0b
0(
b0 c
b0 )
b0 '"
b0 ^
b0 &
b0 &"
06"
0.
b1000000 g
b100101100000001000 z
b0 )"
b0 '
b0 H
1+"
b1000 ,"
b100101100000000111 ("
b0 /"
b1000 :"
b1001 7"
b1001 /
b1001 J
b1000 8"
b1 5"
b100 9"
b10 Y"
16
1A
#190
b1110000000110000000010100000001000000000011000000001000000010010000001000 $#
b1110000000110000000010100000001000000000011000000001000000010010000001000 B"
b1 a"
b1 v"
b1 y"
b1 |"
b1 "#
b1 &#
b1110000000110000000010100000001000000000011000000001000000000010000001000 T"
b1110000000110000000010100000001000000000011000000001000000000010000001000 ##
b1110000000110000000010100000001000000000011000000001000000000010000001000 .#
b1001 q"
b1001 ?"
b1001 !#
1^"
06
0A
1@
1K"
#195
b100 y
b100101100000001001 v
1[
1$
1Y
1"
b100 e
b11 d
b11 *
b11 -"
b1000 _
1b
1(
b1001 c
b1001 )
b1001 '"
b100101100000001000 ^
b100101100000001000 &
b100101100000001000 &"
b11 I"
b11 *#
b110 /#
b110 ="
1["
14
16"
1.
b100 s
b0 r
b0 f
b110 S"
b110 -#
b110 0#
b0 Y"
b0 5"
b10 9"
b1000 )"
b1000 '
b1000 H
0+"
b0 ,"
b0 ("
b0 g
16
1A
#200
0^"
06
0A
0@
0K"
#205
b1000000 s
b0 r
0[
0$
0Y
0"
b0 e
b0 d
b0 *
b0 -"
b0 _
0b
0(
b0 c
b0 )
b0 '"
b0 ^
b0 &
b0 &"
06"
0.
0["
04
b100 g
b100 $"
b100101100000001001 z
b0 )"
b0 '
b0 H
1+"
b1001 ,"
b100101100000001000 ("
b11 /"
b1001 :"
b1010 7"
b1010 /
b1010 J
b1001 8"
b1 5"
b100 9"
b1 Y"
16
1A
#210
b1 J"
b1 3#
b1110000000110000000010100000001000000000011000000101000000010010000001000 $#
b1110000000110000000010100000001000000000011000000101000000010010000001000 B"
b1010 q"
b1010 ?"
b1010 !#
b10 a"
b10 v"
b10 y"
b10 |"
b10 "#
b10 &#
b1110000000110000000010100000001000000000011000000001000000010010000001000 T"
b1110000000110000000010100000001000000000011000000001000000010010000001000 ##
b1110000000110000000010100000001000000000011000000001000000010010000001000 .#
1^"
06
0A
1@
1K"
#215
b100101100000001010 v
1Y
1"
b1000 _
1b
1(
b1010 c
b1010 )
b1010 '"
b100101100000001001 ^
b100101100000001001 &
b100101100000001001 &"
16"
1.
b0 s
b0 r
b100 f
b10 Y"
b0 5"
b10 9"
b0 /"
b1001 )"
b1001 '
b1001 H
0+"
b0 ,"
b0 ("
b1000000 g
16
1A
#220
0^"
06
0A
0@
0K"
#225
b100 y
b0 s
b0 r
b0 f
0[
0$
0Y
0"
b0 e
b0 d
b0 *
b0 -"
b0 _
0b
0(
b0 c
b0 )
b0 '"
b0 ^
b0 &
b0 &"
06"
0.
b0 I"
b0 *#
b1000 /#
b1000 ="
0["
04
b0 g
b100101100000001010 z
b0 )"
b0 '
b0 H
1+"
b1010 ,"
b100101100000001001 ("
b1010 :"
b1011 7"
b1011 /
b1011 J
b1010 8"
b1 5"
b100 9"
b0 S"
b0 -#
b0 0#
b0 Y"
16
1A
#230
b1110000000110000000010100000001000000001011000000101000000010010000001000 $#
b1110000000110000000010100000001000000001011000000101000000010010000001000 B"
b11 a"
b11 v"
b11 y"
b11 |"
b11 "#
b11 &#
b1110000000110000000010100000001000000000011000000101000000010010000001000 T"
b1110000000110000000010100000001000000000011000000101000000010010000001000 ##
b1110000000110000000010100000001000000000011000000101000000010010000001000 .#
b1011 q"
b1011 ?"
b1011 !#
1^"
06
0A
1@
1K"
#235
b100101100000001011 v
1Y
1"
b1000 _
1b
1(
b1011 c
b1011 )
b1011 '"
b100101100000001010 ^
b100101100000001010 &
b100101100000001010 &"
16"
1.
b0 s
b0 r
b0 5"
b10 9"
b1010 )"
b1010 '
b1010 H
0+"
b0 ,"
b0 ("
16
1A
#240
0^"
06
0A
0@
0K"
#245
b0 s
b0 r
0Y
0"
b0 _
0b
0(
b0 c
b0 )
b0 '"
b0 ^
b0 &
b0 &"
06"
0.
b100101100000001011 z
b0 )"
b0 '
b0 H
1+"
b1011 ,"
b100101100000001010 ("
b1011 :"
b1100 7"
b1100 /
b1100 J
b1011 8"
b1 5"
b100 9"
16
1A
#250
b101 y
b100 s
b0 r
1[
1$
b100 e
b100 d
b100 *
b100 -"
1["
14
b10 J"
b10 3#
b1110000000110000000010100000011000000001011000000101000000010010000001000 $#
b1110000000110000000010100000011000000001011000000101000000010010000001000 B"
b1100 q"
b1100 ?"
b1100 !#
b100 a"
b100 v"
b100 y"
b100 |"
b100 "#
b100 &#
b1110000000110000000010100000001000000001011000000101000000010010000001000 T"
b1110000000110000000010100000001000000001011000000101000000010010000001000 ##
b1110000000110000000010100000001000000001011000000101000000010010000001000 .#
1^"
06
0A
1@
1K"
#255
b100101100000001100 v
0[
0$
1Y
1"
b0 e
b1000 _
1b
1(
b1100 c
b1100 )
b1100 '"
b100101100000001011 ^
b100101100000001011 &
b100101100000001011 &"
0["
04
16"
1.
b101 y
b1000000 s
b0 r
b0 d
b0 *
b0 -"
b1 Y"
b0 5"
b10 9"
b100 /"
b1011 )"
b1011 '
b1011 H
0+"
b0 ,"
b0 ("
b100 g
b101 $"
16
1A
#260
0^"
06
0A
0@
0K"
#265
b0 s
b0 r
b100 f
0Y
0"
b0 _
0b
0(
b0 c
b0 )
b0 '"
b0 ^
b0 &
b0 &"
06"
0.
b1000000 g
b100101100000001100 z
b0 )"
b0 '
b0 H
1+"
b1100 ,"
b100101100000001011 ("
b0 /"
b1100 :"
b1101 7"
b1101 /
b1101 J
b1100 8"
b1 5"
b100 9"
b10 Y"
16
1A
#270
b1110000000110000000110100000011000000001011000000101000000010010000001000 $#
b1110000000110000000110100000011000000001011000000101000000010010000001000 B"
b101 a"
b101 v"
b101 y"
b101 |"
b101 "#
b101 &#
b1110000000110000000010100000011000000001011000000101000000010010000001000 T"
b1110000000110000000010100000011000000001011000000101000000010010000001000 ##
b1110000000110000000010100000011000000001011000000101000000010010000001000 .#
b1101 q"
b1101 ?"
b1101 !#
1^"
06
0A
1@
1K"
#275
b101 y
b100101100000001101 v
0[
0$
1Y
1"
b0 e
b0 d
b0 *
b0 -"
b1000 _
1b
1(
b1101 c
b1101 )
b1101 '"
b100101100000001100 ^
b100101100000001100 &
b100101100000001100 &"
b1 I"
b1 *#
b1010 /#
b1010 ="
0["
04
16"
1.
b0 s
b0 r
b0 f
b10 S"
b10 -#
b10 0#
b0 Y"
b0 5"
b10 9"
b1100 )"
b1100 '
b1100 H
0+"
b0 ,"
b0 ("
b0 g
16
1A
#280
0^"
06
0A
0@
0K"
